Fit models for use in examples — cmdstanr_example • cmdstanr
…
#> }
#> model {
#>   target += normal_lpdf(alpha | 0, 1);
#>   target += normal_lpdf(beta | 0, 1);
#>   target += bernoulli_logit_glm_lpmf(y | X, alpha, beta);
#> }
#> generated quantities {
#>   vector[N] log_lik;
#>   for (n in 1 : N) {
#>     log_lik[n] = bernoulli_logit_lpmf(y[n] | alpha + X[n] * beta);
#>   }
#> }
fit_logistic_mcmc <- cmdstanr_example("logistic", chains = 2)
fit_logistic_mcmc$summary()
#> # A tibble: 105 × 10
#>    variable      mean  median     sd    mad       q5      q95  rhat ess_bulk
#>    <chr>        <dbl>   <dbl>  <dbl>  <dbl>    <dbl>    <dbl> <dbl>    <dbl>
#>  1 lp__       -65.9   -65.6   1.44   1.25   -68.7    -64.3    1.00     1027.
#>  2 alpha        0.381   0.377 0.215  0.205    0.0326   0.737  1.000    1941.
#>  3 beta[1]     -0.667  -0.665 0.250  0.250   -1.08    -0.254  1.00     1988.
#>  4 beta[2]     -0.276  -0.273 0.224  0.219   -0.650    0.0864 1.00     2027.
#>  5 beta[3]      0.680   0.676 0.264  0.259    0.261    1.13   1.00     1918.
#>  6 log_lik[1]  -0.515  -0.508 0.0984 0.0979  -0.686   -0.367  1.00     1971.
#>  7 log_lik[2]  -0.404  -0.384 0.147  0.149   -0.673   -0.199  0.999    2029.
#>  8 log_lik[3]  -0.498  -0.465 0.217  0.193   -0.940   -0.214  1.00     2177.
#>  9 log_lik[4]  -0.449  -0.430 0.151  0.147   -0.706   -0.237  1.00     1849.
#> 10 log_lik[5]  -1.18   -1.16  0.275  0.263   -1.66    -0.765  1.00     2179.
#> # ℹ 95 more rows
#> # ℹ 1 more variable: ess_tail <dbl>

fit_logistic_optim <- cmdstanr_example("logistic", method = "optimize")
fit_logistic_optim$summary()
#> # A tibble: 105 × 2
#>    variable   estimate
#>    <chr>         <dbl>
#>  1 lp__        -63.9  
#>  2 alpha         0.364
#>  3 beta[1]      -0.632
#>  4 beta[2]      -0.259
#>  5 beta[3]       0.649
#>  6 log_lik[1]   -0.515
#>  7 log_lik[2]   -0.394
#>  8 log_lik[3]   -0.469
#>  9 log_lik[4]   -0.442
#> 10 log_lik[5]   -1.14 
#> # ℹ 95 more rows

fit_logistic_vb <- cmdstanr_example("logistic", method = "variational")
fit_logistic_vb$summary()
#> # A tibble: 106 × 7
#>    variable       mean  median    sd   mad       q5     q95
#>    <chr>         <dbl>   <dbl> <dbl> <dbl>    <dbl>   <dbl>
#>  1 lp__        -66.4   -66.1   1.77  1.59  -69.7    -64.3  
#>  2 lp_approx__  -2.08   -1.78  1.44  1.29   -4.75    -0.363
#>  3 alpha         0.427   0.427 0.241 0.249   0.0180   0.811
#>  4 beta[1]      -0.678  -0.680 0.213 0.223  -1.02    -0.330
#>  5 beta[2]      -0.324  -0.326 0.295 0.300  -0.804    0.170
#>  6 beta[3]       0.670   0.658 0.276 0.268   0.214    1.12 
#>  7 log_lik[1]   -0.501  -0.492 0.107 0.105  -0.696   -0.343
#>  8 log_lik[2]   -0.436  -0.408 0.175 0.156  -0.760   -0.201
#>  9 log_lik[3]   -0.539  -0.489 0.288 0.272  -1.08    -0.173
#> 10 log_lik[4]   -0.453  -0.418 0.173 0.167  -0.777   -0.222
#> # ℹ 96 more rows
…
