…
## See also

[`CmdStanMCMC`](https://mc-stan.org/cmdstanr/dev/reference/CmdStanMCMC.md),
[`CmdStanMLE`](https://mc-stan.org/cmdstanr/dev/reference/CmdStanMLE.md),
[`CmdStanLaplace`](https://mc-stan.org/cmdstanr/dev/reference/CmdStanLaplace.md),
[`CmdStanVB`](https://mc-stan.org/cmdstanr/dev/reference/CmdStanVB.md),
[`CmdStanGQ`](https://mc-stan.org/cmdstanr/dev/reference/CmdStanGQ.md)

## Examples

``` r
# \dontrun{
fit <- cmdstanr_example("logistic")
fit$summary()
#> # A tibble: 105 × 10
#>    variable      mean  median    sd   mad        q5      q95  rhat ess_bulk
#>    <chr>        <dbl>   <dbl> <dbl> <dbl>     <dbl>    <dbl> <dbl>    <dbl>
#>  1 lp__       -66.0   -65.7   1.49  1.26  -68.9     -64.3    1.00     1844.
#>  2 alpha        0.369   0.365 0.228 0.225   0.00283   0.761  1.00     3980.
#>  3 beta[1]     -0.670  -0.667 0.249 0.246  -1.10     -0.271  1.00     4259.
#>  4 beta[2]     -0.274  -0.273 0.228 0.231  -0.650     0.0987 1.00     4272.
#>  5 beta[3]      0.679   0.672 0.272 0.274   0.238     1.13   1.00     4091.
#>  6 log_lik[1]  -0.520  -0.514 0.104 0.104  -0.699    -0.359  1.00     4032.
#>  7 log_lik[2]  -0.400  -0.380 0.150 0.141  -0.677    -0.189  1.00     4524.
#>  8 log_lik[3]  -0.502  -0.469 0.221 0.210  -0.905    -0.208  1.00     4378.
#>  9 log_lik[4]  -0.448  -0.429 0.158 0.156  -0.728    -0.226  1.000    3851.
#> 10 log_lik[5]  -1.17   -1.15  0.281 0.278  -1.68     -0.750  1.00     4503.
#> # ℹ 95 more rows
#> # ℹ 1 more variable: ess_tail <dbl>
…
# include all variables but only certain summaries
fit$summary(NULL, c("mean", "sd"))
#> # A tibble: 105 × 3
#>    variable      mean    sd
#>    <chr>        <dbl> <dbl>
#>  1 lp__       -66.0   1.49 
#>  2 alpha        0.369 0.228
#>  3 beta[1]     -0.670 0.249
#>  4 beta[2]     -0.274 0.228
#>  5 beta[3]      0.679 0.272
#>  6 log_lik[1]  -0.520 0.104
#>  7 log_lik[2]  -0.400 0.150
#>  8 log_lik[3]  -0.502 0.221
#>  9 log_lik[4]  -0.448 0.158
#> 10 log_lik[5]  -1.17  0.281
#> # ℹ 95 more rows
…
