…
## Examples

``` r
# \dontrun{
fit <- cmdstanr_example("logistic")

temp_rds_file <- tempfile(fileext = ".RDS")
fit$save_object(file = temp_rds_file)
rm(fit)

fit <- readRDS(temp_rds_file)
fit$summary()
#> # A tibble: 105 × 10
#>    variable      mean  median     sd    mad       q5     q95  rhat ess_bulk
#>    <chr>        <dbl>   <dbl>  <dbl>  <dbl>    <dbl>   <dbl> <dbl>    <dbl>
#>  1 lp__       -65.9   -65.6   1.40   1.23   -68.6    -64.3   1.00     2050.
#>  2 alpha        0.375   0.374 0.217  0.211    0.0109   0.736 1.00     4049.
#>  3 beta[1]     -0.660  -0.659 0.243  0.239   -1.06    -0.261 1.00     4553.
#>  4 beta[2]     -0.272  -0.274 0.229  0.227   -0.648    0.101 1.00     4003.
#>  5 beta[3]      0.679   0.674 0.266  0.272    0.244    1.12  1.00     4373.
#>  6 log_lik[1]  -0.518  -0.511 0.0985 0.0967  -0.691   -0.365 1.00     4150.
#>  7 log_lik[2]  -0.402  -0.383 0.144  0.142   -0.666   -0.198 1.00     4705.
#>  8 log_lik[3]  -0.500  -0.469 0.217  0.210   -0.893   -0.206 1.000    4100.
#>  9 log_lik[4]  -0.450  -0.431 0.152  0.149   -0.731   -0.234 1.00     3910.
#> 10 log_lik[5]  -1.18   -1.16  0.279  0.272   -1.67    -0.758 1.00     4108.
#> # ℹ 95 more rows
#> # ℹ 1 more variable: ess_tail <dbl>
…
