Fit models for use in examples — cmdstanr_example • cmdstanr
…
#> }
#> model {
#>   target += normal_lpdf(alpha | 0, 1);
#>   target += normal_lpdf(beta | 0, 1);
#>   target += bernoulli_logit_glm_lpmf(y | X, alpha, beta);
#> }
#> generated quantities {
#>   vector[N] log_lik;
#>   for (n in 1 : N) {
#>     log_lik[n] = bernoulli_logit_lpmf(y[n] | alpha + X[n] * beta);
#>   }
#> }
fit_logistic_mcmc <- cmdstanr_example("logistic", chains = 2)
fit_logistic_mcmc$summary()
#> # A tibble: 105 × 10
#>    variable      mean  median     sd    mad       q5      q95  rhat ess_bulk
#>    <chr>        <dbl>   <dbl>  <dbl>  <dbl>    <dbl>    <dbl> <dbl>    <dbl>
#>  1 lp__       -66.0   -65.6   1.43   1.22   -68.8    -64.3     1.00     963.
#>  2 alpha        0.376   0.373 0.220  0.221    0.0226   0.745   1.00    2237.
#>  3 beta[1]     -0.671  -0.663 0.250  0.252   -1.10    -0.258   1.00    1930.
#>  4 beta[2]     -0.262  -0.261 0.222  0.229   -0.629    0.0934  1.00    1801.
#>  5 beta[3]      0.674   0.681 0.264  0.263    0.242    1.10    1.00    1979.
#>  6 log_lik[1]  -0.515  -0.509 0.0991 0.0964  -0.681   -0.363   1.00    2100.
#>  7 log_lik[2]  -0.401  -0.381 0.147  0.138   -0.671   -0.197   1.00    2010.
#>  8 log_lik[3]  -0.489  -0.456 0.215  0.202   -0.891   -0.207   1.00    1914.
#>  9 log_lik[4]  -0.455  -0.435 0.154  0.152   -0.726   -0.242   1.00    1918.
#> 10 log_lik[5]  -1.18   -1.16  0.283  0.282   -1.69    -0.749   1.00    2470.
#> # ℹ 95 more rows
#> # ℹ 1 more variable: ess_tail <dbl>

fit_logistic_optim <- cmdstanr_example("logistic", method = "optimize")
fit_logistic_optim$summary()
#> # A tibble: 105 × 2
#>    variable   estimate
#>    <chr>         <dbl>
#>  1 lp__        -63.9  
#>  2 alpha         0.364
#>  3 beta[1]      -0.632
#>  4 beta[2]      -0.259
#>  5 beta[3]       0.648
#>  6 log_lik[1]   -0.515
#>  7 log_lik[2]   -0.394
#>  8 log_lik[3]   -0.469
#>  9 log_lik[4]   -0.442
#> 10 log_lik[5]   -1.14 
#> # ℹ 95 more rows

fit_logistic_vb <- cmdstanr_example("logistic", method = "variational")
fit_logistic_vb$summary()
#> # A tibble: 106 × 7
#>    variable       mean  median    sd   mad      q5      q95
#>    <chr>         <dbl>   <dbl> <dbl> <dbl>   <dbl>    <dbl>
#>  1 lp__        -66.4   -65.9   1.84  1.52  -69.9   -64.3   
#>  2 lp_approx__  -1.98   -1.65  1.42  1.25   -4.64   -0.331 
#>  3 alpha         0.377   0.370 0.296 0.307  -0.116   0.869 
#>  4 beta[1]      -0.646  -0.648 0.241 0.234  -1.04   -0.241 
#>  5 beta[2]      -0.252  -0.257 0.201 0.191  -0.579   0.0845
#>  6 beta[3]       0.702   0.695 0.280 0.269   0.236   1.16  
#>  7 log_lik[1]   -0.523  -0.518 0.128 0.130  -0.747  -0.331 
#>  8 log_lik[2]   -0.398  -0.369 0.168 0.155  -0.716  -0.174 
#>  9 log_lik[3]   -0.480  -0.450 0.204 0.193  -0.859  -0.211 
#> 10 log_lik[4]   -0.455  -0.431 0.159 0.160  -0.739  -0.235 
#> # ℹ 96 more rows
…
