Compute a summary table of estimates and diagnostics — fit-method-summary • cmdstanr
…
The $print() method returns the fitted model object itself (invisibly),
which is the standard behavior for print methods in R.

    See also

    CmdStanMCMC, CmdStanMLE, CmdStanVB, CmdStanGQ

    Examples

# \dontrun{
fit <- cmdstanr_example("logistic")
#> Model executable is up to date!
fit$summary()
#> # A tibble: 105 x 10
#>    variable    mean  median     sd    mad       q5      q95  rhat ess_bulk
#>    <chr>      <dbl>   <dbl>  <dbl>  <dbl>    <dbl>    <dbl> <dbl>    <dbl>
#>  1 lp__     -65.9   -65.6   1.45   1.22   -68.8    -64.3     1.00    2041.
#>  2 alpha      0.379   0.381 0.220  0.220    0.0269   0.753   1.00    4096.
#>  3 beta[1]   -0.659  -0.655 0.250  0.252   -1.08    -0.261   1.00    3764.
#>  4 beta[2]   -0.273  -0.271 0.225  0.216   -0.646    0.0888  1.00    4440.
#>  5 beta[3]    0.681   0.677 0.261  0.259    0.271    1.12    1.00    4279.
#>  6 log_lik…  -0.517  -0.510 0.0988 0.0989  -0.686   -0.367   1.00    3990.
#>  7 log_lik…  -0.403  -0.385 0.146  0.135   -0.677   -0.200   1.00    4584.
#>  8 log_lik…  -0.499  -0.466 0.220  0.204   -0.891   -0.210   1.00    4330.
#>  9 log_lik…  -0.450  -0.432 0.152  0.150   -0.726   -0.238   1.00    4179.
#> 10 log_lik…  -1.18   -1.16  0.282  0.284   -1.68    -0.756   1.00    4453.
#> # … with 95 more rows, and 1 more variable: ess_tail <dbl>
…
# include all variables but only certain summaries
fit$summary(NULL, c("mean", "sd"))
#> # A tibble: 105 x 3
#>    variable      mean     sd
#>    <chr>        <dbl>  <dbl>
#>  1 lp__       -65.9   1.45  
#>  2 alpha        0.379 0.220 
#>  3 beta[1]     -0.659 0.250 
#>  4 beta[2]     -0.273 0.225 
#>  5 beta[3]      0.681 0.261 
#>  6 log_lik[1]  -0.517 0.0988
#>  7 log_lik[2]  -0.403 0.146 
#>  8 log_lik[3]  -0.499 0.220 
#>  9 log_lik[4]  -0.450 0.152 
#> 10 log_lik[5]  -1.18  0.282 
#> # … with 95 more rows
…
